elections_covid
…
x <- county %>% left_join(pop_county, by = c("state", "county"))

y <- x %>% left_join(partisanship, by = c("state", "county")) %>% 
  group_by(state, county) %>% 
  mutate(new_cases = cases - lag(cases)) %>% 
  mutate(cases_7day = rollmean(new_cases, k = 7, fill = NA),
         new_per_100K = (new_cases / population) * 100000, 
         seven_day_per_100K = (cases_7day / population) * 100000)

z <- y %>% filter(state == "Minnesota" & date == "2020-10-26")

z

## # A tibble: 88 x 18
## # Groups:   state, county [88]
##    date       county state fips  cases deaths population pop_density pct_dem
##    <date>     <chr>  <chr> <chr> <dbl>  <dbl>      <dbl>       <dbl>   <dbl>
##  1 2020-10-26 Aitkin Minn 27001   179      2      15902        8.73   0.362
##  2 2020-10-26 Anoka  Minn 27003  8872    150     353813      838.     0.447
##  3 2020-10-26 Becker Minn 27005   575      4      34371       26.1    0.324
##  4 2020-10-26 Beltr Minn 27007   901      7      46847       18.7    0.446
##  5 2020-10-26 Benton Minn 27009   950      9      40545       99.3    0.305
##  6 2020-10-26 Big S Minn 27011   141      0       4989        9.99   0.364
##  7 2020-10-26 Blue  Minn 27013  2045      7      67427       90.2    0.479
##  8 2020-10-26 Brown  Minn 27015   324      3      25111       41.1    0.302
##  9 2020-10-26 Carlt Minn 27017   444      1      35837       41.6    0.509
## 10 2020-10-26 Carver Minn 27019  1820      7     103551      292.     0.425
## #  with 78 more rows, and 9 more variables: rural_pct <dbl>,
## #   median_hh_inc <dbl>, total_population <dbl>, age65andolder_pct <dbl>,
## #   lesshs_pct <dbl>, new_cases <dbl>, cases_7day <dbl>, new_per_100K <dbl>,
## #   seven_day_per_100K <dbl>
…
# ggsave("MNpartisanspread.jpg", plot = last_plot(), width = 9, height = 6)

m <- y %>% filter(state == "Wisconsin" & date == "2020-10-26")

m

## # A tibble: 72 x 18
## # Groups:   state, county [72]
##    date       county state fips  cases deaths population pop_density pct_dem
##    <date>     <chr>  <chr> <chr> <dbl>  <dbl>      <dbl>       <dbl>   <dbl>
##  1 2020-10-26 Adams  Wisc 55001   500      5      20348        31.5   0.387
##  2 2020-10-26 Ashla Wisc 55003   280      3      15600        14.9   0.561
##  3 2020-10-26 Barron Wisc 55005  1094      6      45164        52.3   0.367
##  4 2020-10-26 Bayfi Wisc 55007   231      1      15042        10.2   0.546
##  5 2020-10-26 Brown  Wisc 55009 14903     91     263378       497.    0.443
##  6 2020-10-26 Buffa Wisc 55011   261      3      13125        19.4   0.385
##  7 2020-10-26 Burne Wisc 55013   311      6      15392        18.7   0.353
##  8 2020-10-26 Calum Wisc 55015  2689     11      50159       158.    0.386
##  9 2020-10-26 Chipp Wisc 55017  1567     13      64135        63.6   0.399
## 10 2020-10-26 Clark  Wisc 55019   894     18      34709        28.7   0.328
## #  with 62 more rows, and 9 more variables: rural_pct <dbl>,
## #   median_hh_inc <dbl>, total_population <dbl>, age65andolder_pct <dbl>,
## #   lesshs_pct <dbl>, new_cases <dbl>, cases_7day <dbl>, new_per_100K <dbl>,
## #   seven_day_per_100K <dbl>
…
f <- y %>% filter(date == "2020-10-26"
                   & state %in% c("North Dakota", "South Dakota"))

f %>% arrange(desc(seven_day_per_100K))

## # A tibble: 120 x 18
## # Groups:   state, county [120]
##    date       county state fips  cases deaths population pop_density pct_dem
##    <date>     <chr>  <chr> <chr> <dbl>  <dbl>      <dbl>       <dbl>   <dbl>
##  1 2020-10-26 Bon H Sout 46009   773      1       6980      12.4    0.251 
##  2 2020-10-26 Buffa Sout 46017   235      4       2036       4.32   0.634 
##  3 2020-10-26 Oglal Sout 46102   855      5      14309       6.83   0.912 
##  4 2020-10-26 Wells  Nort 38103   118      0       3957       3.11   0.189 
##  5 2020-10-26 Eddy   Nort 38027   191      3       2313       3.67   0.310 
##  6 2020-10-26 Corson Sout 46031   170      1       4165       1.69   0.476 
##  7 2020-10-26 Lyman  Sout 46085   251      5       3821       2.33   0.274 
##  8 2020-10-26 Walsh  Nort 38099   437      2      10667       8.32   0.280 
##  9 2020-10-26 Hardi Sout 46063    46      0       1249       0.468  0.0518
## 10 2020-10-26 Mercer Nort 38057   462      3       8267       7.93   0.142 
## #  with 110 more rows, and 9 more variables: rural_pct <dbl>,
## #   median_hh_inc <dbl>, total_population <dbl>, age65andolder_pct <dbl>,
## #   lesshs_pct <dbl>, new_cases <dbl>, cases_7day <dbl>, new_per_100K <dbl>,
## #   seven_day_per_100K <dbl>
…
